{
  "ERROR_at_URL": {
    "description": "E.g. 404 - Not Found at http://.../404.js",
    "message": "$1 at $2"
  },
  "NAME_greasemonkey_user_script": {
    "message": "$1 - Greasemonkey User Script"
  },
  "SCRIPT_does_not_grant_METHOD": {
    "message": "$1 does not @grant method $2"
  },
  "auto_update_disabled": {
    "message": "Auto update disabled"
  },
  "auto_update_enabled": {
    "message": "Auto update enabled"
  },
  "backup_export": {
    "message": "Export a backup..."
  },
  "backup_import": {
    "message": "Import a backup..."
  },
  "backup_import_file": {
    "message": "Import file"
  },
  "backup_import_options": {
    "message": "Import options"
  },
  "backup_import_remove_detail": {
    "message": "Uninstall scripts which are not in the backup file."
  },
  "backup_import_replace_detail": {
    "message": "Overwrite already installed scripts with the version in the backup file."
  },
  "backup_import_select_file": {
    "message": "Select a Greasemonkey backup ZIP file to import it with the above options."
  },
  "backup_import_title": {
    "message": "Greasemonkey Backup Import"
  },
  "cancel": {
    "message": "Cancel"
  },
  "close": {
    "message": "Close"
  },
  "confirm_update_edited": {
    "message": "You have edited this script, really update it?"
  },
  "description": {
    "message": "Description:"
  },
  "disabled": {
    "message": "Disabled"
  },
  "does_not_run_on": {
    "message": "Does not run on:"
  },
  "done": {
    "message": "Done"
  },
  "download_error_unknown": {
    "message": "User script download encountered an unknown error."
  },
  "download_failed": {
    "message": "User script download failed"
  },
  "duplicate_resource_NAME": {
    "message": "Duplicate resource name: $1"
  },
  "edit": {
    "message": "Edit"
  },
  "enabled": {
    "message": "Enabled"
  },
  "exclude": {
    "message": "Exclude"
  },
  "extDesc": {
    "message": "A User Script manager for Firefox."
  },
  "extName": {
    "message": "cobweb"
  },
  "fix_and_save": {
    "message": "The editor contents have not been saved.  Fix this error and try again."
  },
  "get_user_scripts": {
    "message": "Get user scripts"
  },
  "global_excludes": {
    "message": "Global Excludes"
  },
  "global_excludes_explain": {
    "message": "One @exclude pattern per line.  No user scripts will run here."
  },
  "gm_notif_text_must_be_string": {
    "message": "GM.notification: \"text\" must be a string"
  },
  "gm_opentab_bad_URL": {
    "message": "GM.openInTab: Could not understand the URL: $1"
  },
  "gm_script_id": {
    "message": "[Greasemonkey script $1]"
  },
  "gm_script_id_ver": {
    "message": "[Greasemonkey script $id$; version $version$]",
    "placeholders": {
      "id": {
        "content": "$1",
        "example": "User Script Name Here"
      },
      "version": {
        "content": "$2",
        "example": "1.0"
      }
    }
  },
  "greasemonkey_home_page": {
    "message": "Greasemonkey home page"
  },
  "greasemonkey_is_active": {
    "message": "Greasemonkey is active"
  },
  "greasemonkey_is_disabled": {
    "message": "Greasemonkey is disabled"
  },
  "greasemonkey_options": {
    "message": "Greasemonkey Options"
  },
  "greasemonkey_user_script_editor": {
    "message": "Greasemonkey User Script Editor"
  },
  "greasemonkey_wiki": {
    "message": "Greasemonkey Wiki"
  },
  "homepage": {
    "message": "Home page"
  },
  "ignoring_MATCH_because_REASON": {
    "message": "Ignoring @match pattern $1 because:\n$2"
  },
  "import_greasemonkey_database": {
    "message": "Import Greasemonkey database"
  },
  "importing": {
    "message": "Importing ..."
  },
  "install": {
    "message": "Install"
  },
  "install_disabled": {
    "message": "Install in disabled state"
  },
  "install_failed": {
    "message": "User script failed to install"
  },
  "last_updated": {
    "message": "Last updated:"
  },
  "malicious_user_scripts": {
    "message": "Malicious user scripts can violate your privacy, steal your data, and act on your behalf without your knowledge."
  },
  "matches": {
    "message": "Matches:"
  },
  "new_user_script": {
    "message": "New user script..."
  },
  "only_use_these": {
    "message": "Only use these"
  },
  "open_editor_after": {
    "message": "Open editor after install completes"
  },
  "options": {
    "message": "Options:"
  },
  "other_user_scripts": {
    "message": "Other user scripts"
  },
  "requires_special_apis": {
    "message": "Requires special APIs:"
  },
  "runs_on": {
    "message": "Runs on:"
  },
  "save": {
    "message": "Save"
  },
  "save_failed_NAME_already_in_NAMESPACE": {
    "message": "User script save failed: script named $1 already exists in namespace $2."
  },
  "save_failed_unknown": {
    "message": "User script save failed: unknown error."
  },
  "saving": {
    "message": "Saving"
  },
  "script_save_error": {
    "message": "Script save error"
  },
  "sources_you_trust": {
    "message": "You should only install scripts from sources that you trust."
  },
  "this_is_a_greasemonkey_user_script": {
    "message": "This is a Greasemonkey user script.  Click install to start using it."
  },
  "undo_uninstall": {
    "message": "Undo uninstall"
  },
  "uninstall": {
    "message": "Uninstall"
  },
  "unnamed_script_RAND": {
    "message": "Unnamed Script $1"
  },
  "update_now": {
    "message": "Update now"
  },
  "update_result_error": {
    "message": "Error checking for update."
  },
  "update_result_noupdate": {
    "message": "No newer version available."
  },
  "update_result_updated": {
    "message": "Updated successfully."
  },
  "user_includes": {
    "message": "User includes"
  },
  "user_excludes": {
    "message": "User excludes"
  },
  "user_matches": {
    "message": "User matches"
  },
  "user_script_options": {
    "message": "User script options"
  },
  "user_scripts_for_this_tab": {
    "message": "User scripts for this tab"
  },
  "version": {
    "message": "Version:"
  },
  "xhr_bad_url": {
    "message": "GM.xmlHttpRequest: Could not understand the URL: $1\n$2"
  },
  "xhr_bad_url_scheme": {
    "message": "GM.xmlHttpRequest: Passed URL has bad protocol: $1"
  },
  "xhr_no_details": {
    "message": "GM.xmlHttpRequest: Received no details."
  },
  "xhr_no_url": {
    "message": "GM.xmlHttpRequest: Received no URL."
  }
}
